"p, y.e.","lk, A"
750,6
740,23
730,33
725,54
700,76
690,93
680,106
665,128
650,155
633,181
615,207
600,228
585,260
570,285
555,309
540,340
520,370
505,397
490,426
470,462
450,493
440,520
430,539
404,573
400,595
380,637
365,670
350,704
335,730
315,773
300,800
290,832
275,856
264,894
250,910
245,946
225,968
215,982
210,990
205,1000
200,1005
195,1011
185,1016
177,1024
160,1027
145,1028
120,1020
100,1016
70,1010
50,1003
30,1000
0,993
