U,I
0.06,2
0.11,3
1.8,7
1.95,7
2.2,8
2.53,9
2.83,10
3.38,11
3.75,12
4.12,13
4.56,15
4.87,16
5.02,16
5.36,17
5.8,19
5.97,19
6.12,20
6.5,21
6.93,23
7.33,24
7.53,25
7.92,27
8.23,28
8.55,30
9.07,32
9.58,34
10.52,38
11.28,41
11.61,42
11.66,43
11.91,44
12.17,44
12.39,45
12.54,46
13.13,48
13.83,51
14.02,51
14.34,53
14.83,54
15.37,56
15.65,57
16.03,58
16.33,59
16.9,61
17.8,64
18.07,65
18.23,65
18.55,66
19.09,67
19.36,68
19.94,68
20.17,68
20.32,68
20.91,68
21.4,68
21.9,68
22.27,65
22.19,66
22.04,67
22.44,64
22.58,57
22.66,53
22.73,52
22.82,50
23.11,48
23.72,48
24.35,50
24.79,52
25.37,56
25.73,57
25.99,59
26.75,62
27.33,65
28.01,68
28.61,71
28.99,73
29.34,75
29.94,78
30.34,80
30.85,83
31.2,84
31.45,85
32.08,88
32.66,91
33.09,93
